…
``` r
set.seed(123)
pca_mod <- specData %>%
  select(where(is.numeric)) %>%
  PCA(scale.unit = FALSE, graph = FALSE)
```

**Step 4.** Extract PCA scores.

``` r
pca_scores <- pca_mod %>%
  pluck("ind", "coord") %>%
  as_tibble() %>%
  print()
#> # A tibble: 100 × 5
#>      Dim.1   Dim.2   Dim.3   Dim.4   Dim.5
#>      <dbl>   <dbl>   <dbl>   <dbl>   <dbl>
#>  1 -35818. -25670.  -1410. -18987. -27824.
#>  2 -12142. -25112. -10597.  -6783. -17026.
#>  3  80218.   2544. -27594. -19345.   3397.
#>  4 -55409.  40806. -14685. -11184. -15158.
#>  5  66703. -11798.  26979.   6451. -18152.
#>  6  21652.  46396. -11037.    467.  -3676.
#>  7 -10316.  19311.   -545. -13258.   3631.
#>  8  66331.  -4200.  21980.  23341.  -1542.
#>  9  41474.  -7211.  13901.  11204.   3586.
#> 10   6716. -15011.   3620.   3784.    241.
#> # … with 90 more rows
```
…
