HotellingEllipse • HotellingEllipse
…
Principal component analysis

In this example, we use FactoMineR::PCA() to perform the Principal Component Analysis (PCA) from a LIBS spectral dataset specData and extract the PCA scores as a data frame tibble::as_tibble().

set.seed(002)
pca_mod <- specData %>%
  select(where(is.numeric)) %>%
  PCA(scale.unit = FALSE, graph = FALSE)

pca_scores <- pca_mod %>%
  pluck("ind", "coord") %>%
  as_tibble() %>%
  print()
#> # A tibble: 100 × 5
#>      Dim.1    Dim.2  Dim.3   Dim.4 Dim.5
#>      <dbl>    <dbl>  <dbl>   <dbl> <dbl>
#>  1 25306.  -10831.  -1851.   -83.4 -560.
#>  2   -67.3   1137.  -2946.  2495.  -568.
#>  3 -1822.     -22.0 -2305.  1640.  -409.
#>  4 -1238.    3734.   4039. -2428.   379.
#>  5  3299.    4727.   -888. -1089.   262.
#>  6  5006.     -49.5  2534.  1917.  -970.
#>  7 -8325.   -5607.    960. -3361.   103.
#>  8 -4955.   -1056.   2510.  -397.  -354.
#>  9 -1610.    1271.  -2556.  2268.  -760.
#> 10 19582.    2289.    886.  -843.  1483.
#> # ℹ 90 more rows
…
