HotellingEllipse • HotellingEllipse
…
data("specData")

In this example, we use FactoMineR::PCA() to perform the Principal Component Analysis (PCA) from a LIBS spectral dataset specData and extract the PCA scores as a data frame tibble::as_tibble().

set.seed(123)
pca_mod <- specData %>%
  select(where(is.numeric)) %>%
  PCA(scale.unit = FALSE, graph = FALSE)

pca_scores <- pca_mod %>%
  pluck("ind", "coord") %>%
  as_tibble()

pca_scores
#> # A tibble: 171 x 5
#>      Dim.1   Dim.2   Dim.3   Dim.4   Dim.5
#>      <dbl>   <dbl>   <dbl>   <dbl>   <dbl>
#>  1 144168. -36399.   2228.   -670.  13805.
#>  2 118520. -31465.  16300. -20686. -13872.
#>  3  90303. -28356.  31340. -60615.  15157.
#>  4 107107. -38209.  24897. -60366.  19449.
#>  5  74350.  -2148.  29814.  -8351.    494.
#>  6  97511. -17932.  22254. -15406.  -4195.
#>  7  82142.  19297. -34299. -12498.   -648.
#>  8  76261.  16566. -34382. -16293.    137.
#>  9  73705.  31091. -22577. -17182.   2438.
#> 10  68042.  25124. -26063. -19389.   6051.
#> # … with 161 more rows
…
